COQAUX1 91a6e02ea3b5f59448db82a6ab0aeac0 /home/delta/coq/liber/divisibilite/DivPrelude.v
0 0 VernacProof "tac:no using:no"
387 391 proof_build_time "0.001"
0 0 div_eucl_0_r "0.001"
349 386 context_used ""
387 391 proof_check_time "0.000"
0 0 VernacProof "tac:no using:no"
467 471 proof_build_time "0.000"
0 0 div_eucl_0_l "0.000"
454 466 context_used ""
467 471 proof_check_time "0.000"
0 0 VernacProof "tac:no using:no"
626 630 proof_build_time "0.001"
0 0 mod_0_r "0.001"
588 625 context_used ""
626 630 proof_check_time "0.000"
0 0 VernacProof "tac:no using:no"
781 785 proof_build_time "0.001"
0 0 div_0_r "0.001"
745 780 context_used ""
781 785 proof_check_time "0.000"
0 0 VernacProof "tac:no using:no"
963 967 proof_build_time "0.001"
0 0 mod_0_l "0.001"
925 962 context_used ""
963 967 proof_check_time "0.000"
0 0 VernacProof "tac:no using:no"
1141 1145 proof_build_time "0.001"
0 0 div_0_l "0.001"
1105 1140 context_used ""
1141 1145 proof_check_time "0.000"
0 0 VernacProof "tac:no using:no"
1352 1356 proof_build_time "0.001"
0 0 div_mod "0.001"
1327 1351 context_used ""
1352 1356 proof_check_time "0.000"
0 0 VernacProof "tac:no using:no"
1570 1574 proof_build_time "0.003"
0 0 mod_divide "0.003"
1523 1569 context_used ""
1570 1574 proof_check_time "0.000"
0 0 VernacProof "tac:no using:no"
1722 1726 proof_build_time "0.001"
0 0 divide_mod "0.001"
1678 1721 context_used ""
1722 1726 proof_check_time "0.000"
0 0 VernacProof "tac:no using:no"
1896 1900 proof_build_time "0.000"
0 0 divide_mod_iff "0.000"
1838 1895 context_used ""
1896 1900 proof_check_time "0.000"
0 0 VernacProof "tac:no using:no"
2119 2123 proof_build_time "0.002"
0 0 add_mod "0.002"
2092 2118 context_used ""
2119 2123 proof_check_time "0.000"
0 0 VernacProof "tac:no using:no"
2435 2439 proof_build_time "0.001"
0 0 pow_m1_l_odd "0.001"
2392 2434 context_used ""
2435 2439 proof_check_time "0.000"
0 0 VernacProof "tac:no using:no"
2682 2686 proof_build_time "0.002"
0 0 mul_mod "0.002"
2655 2681 context_used ""
2682 2686 proof_check_time "0.000"
0 0 VernacProof "tac:no using:no"
2976 2980 proof_build_time "0.002"
0 0 mul_mod_idemp_r "0.002"
2923 2975 context_used ""
2976 2980 proof_check_time "0.000"
0 0 VernacProof "tac:no using:no"
3451 3455 proof_build_time "0.003"
0 0 pow_mod "0.003"
3413 3450 context_used ""
3451 3455 proof_check_time "0.001"
0 0 VernacProof "tac:no using:no"
4742 4746 proof_build_time "0.014"
0 0 Private_test_is_prime "0.014"
4715 4741 context_used ""
4742 4746 proof_check_time "0.012"
0 0 VernacProof "tac:no using:no"
5861 5865 proof_build_time "0.010"
0 0 is_prime_aux_correct "0.010"
5813 5860 context_used ""
5861 5865 proof_check_time "0.003"
0 0 VernacProof "tac:no using:no"
6002 6006 proof_build_time "0.000"
0 0 contrapose "0.000"
5932 6001 context_used ""
6002 6006 proof_check_time "0.000"
0 0 VernacProof "tac:no using:no"
6080 6084 proof_build_time "0.000"
0 0 PNNP "0.000"
6051 6079 context_used ""
6080 6084 proof_check_time "0.000"
0 0 VernacProof "tac:no using:no"
