COQAUX1 e79bfd00d4759e0ae967ae21b6efb5d9 /home/delta/coq/liber/binomiaux/Nat_Compl.v
0 0 VernacProof "tac:no using:no"
872 876 proof_build_time "0.000"
0 0 nat_neq_0_1 "0.000"
842 871 context_used ""
872 876 proof_check_time "0.000"
0 0 VernacProof "tac:no using:no"
1118 1122 proof_build_time "0.002"
0 0 nat_eq_1_equiv "0.002"
1100 1117 context_used ""
1118 1122 proof_check_time "0.001"
0 0 VernacProof "tac:no using:no"
1435 1439 proof_build_time "0.004"
0 0 nat_sub_0_eq "0.004"
1394 1434 context_used ""
1435 1439 proof_check_time "0.001"
0 0 VernacProof "tac:no using:no"
1691 1695 proof_build_time "0.001"
0 0 nat_le_S_wnl "0.001"
1674 1690 context_used ""
1691 1695 proof_check_time "0.000"
0 0 VernacProof "tac:no using:no"
1938 1942 proof_build_time "0.001"
0 0 nat_lt_S_wnl "0.001"
1921 1937 context_used ""
1938 1942 proof_check_time "0.000"
0 0 VernacProof "tac:no using:no"
2193 2197 proof_build_time "0.001"
0 0 nat_lt_S_wnf "0.001"
2176 2192 context_used ""
2193 2197 proof_check_time "0.000"
0 0 VernacProof "tac:no using:no"
2345 2349 proof_build_time "0.001"
0 0 nat_S2_gt_1 "0.001"
2319 2344 context_used ""
2345 2349 proof_check_time "0.000"
0 0 VernacProof "tac:no using:no"
2467 2471 proof_build_time "0.001"
0 0 nat_lt_le_dec "0.001"
2449 2466 context_used ""
2467 2471 proof_check_time "0.000"
0 0 VernacProof "tac:no using:no"
2835 2839 proof_build_time "0.004"
0 0 nat_add_0_r_equiv "0.004"
2801 2834 context_used ""
2835 2839 proof_check_time "0.000"
0 0 VernacProof "tac:no using:no"
2946 2950 proof_build_time "0.000"
0 0 nat_add_0_l_equiv "0.000"
2921 2945 context_used ""
2946 2950 proof_check_time "0.000"
0 0 VernacProof "tac:no using:no"
3104 3108 proof_build_time "0.001"
0 0 nat_add_S_pred "0.001"
3083 3103 context_used ""
3104 3108 proof_check_time "0.000"
0 0 VernacProof "tac:no using:no"
3262 3266 proof_build_time "0.001"
0 0 nat_add_pred_S "0.001"
3241 3261 context_used ""
3262 3266 proof_check_time "0.000"
0 0 VernacProof "tac:no using:no"
3606 3610 proof_build_time "0.002"
0 0 nat_eq_add_1_contra_wn0 "0.002"
3588 3605 context_used ""
3606 3610 proof_check_time "0.001"
0 0 VernacProof "tac:no using:no"
3954 3958 proof_build_time "0.002"
0 0 nat_eq_add_1_contra_wn1 "0.002"
3924 3953 context_used ""
3954 3958 proof_check_time "0.001"
0 0 VernacProof "tac:no using:no"
4068 4072 proof_build_time "0.002"
0 0 nat_lt_add_l_S "0.002"
4019 4067 context_used ""
4068 4072 proof_check_time "0.000"
0 0 VernacProof "tac:no using:no"
4330 4334 proof_build_time "0.001"
0 0 nat_lt_add_l_wn0 "0.001"
4318 4329 context_used ""
4330 4334 proof_check_time "0.000"
0 0 VernacProof "tac:no using:no"
4432 4436 proof_build_time "0.000"
0 0 nat_add_lt_l_S "0.000"
4387 4431 context_used ""
4432 4436 proof_check_time "0.000"
0 0 VernacProof "tac:no using:no"
4573 4577 proof_build_time "0.000"
0 0 nat_lt_add_S "0.000"
4551 4572 context_used ""
4573 4577 proof_check_time "0.000"
0 0 VernacProof "tac:no using:no"
4687 4691 proof_build_time "0.000"
0 0 nat_le_add_r_lt_S "0.000"
4665 4686 context_used ""
4687 4691 proof_check_time "0.000"
0 0 VernacProof "tac:no using:no"
4833 4837 proof_build_time "0.001"
0 0 nat_le_lt_add_S "0.001"
4821 4832 context_used ""
4833 4837 proof_check_time "0.000"
0 0 VernacProof "tac:no using:no"
4972 4976 proof_build_time "0.001"
0 0 nat_lt_add_succ_r "0.001"
4956 4971 context_used ""
4972 4976 proof_check_time "0.000"
0 0 VernacProof "tac:no using:no"
5101 5105 proof_build_time "0.002"
0 0 nat_le_lt_add_succ_r "0.002"
5085 5100 context_used ""
5101 5105 proof_check_time "0.000"
0 0 VernacProof "tac:no using:no"
5320 5324 proof_build_time "0.001"
0 0 nat_le_lt_add_sub "0.001"
5303 5319 context_used ""
5320 5324 proof_check_time "0.000"
0 0 VernacProof "tac:no using:no"
5631 5635 proof_build_time "0.002"
0 0 nat_pred_sub "0.002"
5605 5630 context_used ""
5631 5635 proof_check_time "0.000"
0 0 VernacProof "tac:no using:no"
5971 5975 proof_build_time "0.002"
0 0 nat_sub2 "0.002"
5940 5970 context_used ""
5971 5975 proof_check_time "0.000"
0 0 VernacProof "tac:no using:no"
6072 6076 proof_build_time "0.000"
0 0 nat_sub_0_le "0.000"
6032 6071 context_used ""
6072 6076 proof_check_time "0.000"
0 0 VernacProof "tac:no using:no"
6188 6192 proof_build_time "0.000"
0 0 nat_sub_0_lt "0.000"
6132 6187 context_used ""
6188 6192 proof_check_time "0.000"
0 0 VernacProof "tac:no using:no"
6351 6355 proof_build_time "0.001"
0 0 nat_sub_n0_lt "0.001"
6319 6350 context_used ""
6351 6355 proof_check_time "0.000"
0 0 VernacProof "tac:no using:no"
6903 6907 proof_build_time "0.005"
0 0 nat_sub_lt_mono_rev "0.005"
6896 6902 context_used ""
6903 6907 proof_check_time "0.001"
0 0 VernacProof "tac:no using:no"
7099 7103 proof_build_time "0.000"
0 0 nat_le_mul_S_l "0.000"
7079 7098 context_used ""
7099 7103 proof_check_time "0.000"
0 0 VernacProof "tac:no using:no"
7197 7201 proof_build_time "0.000"
0 0 nat_le_mul_S_r "0.000"
7153 7196 context_used ""
7197 7201 proof_check_time "0.000"
0 0 VernacProof "tac:no using:no"
7329 7333 proof_build_time "0.000"
0 0 nat_lt_mul_S_l "0.000"
7268 7328 context_used ""
7329 7333 proof_check_time "0.000"
0 0 VernacProof "tac:no using:no"
7444 7448 proof_build_time "0.000"
0 0 nat_lt_mul_S_r "0.000"
7400 7443 context_used ""
7444 7448 proof_check_time "0.000"
0 0 VernacProof "tac:no using:no"
7565 7569 proof_build_time "0.000"
0 0 nat_lt_1_mul_pos_sym "0.000"
7541 7564 context_used ""
7565 7569 proof_check_time "0.000"
0 0 VernacProof "tac:no using:no"
7781 7785 proof_build_time "0.000"
0 0 nat_div_mul_sym "0.000"
7762 7780 context_used ""
7781 7785 proof_check_time "0.000"
0 0 VernacProof "tac:no using:no"
8214 8218 proof_build_time "0.001"
0 0 nat2_ind "0.001"
8198 8213 context_used ""
8214 8218 proof_check_time "0.000"
0 0 VernacProof "tac:no using:no"
8603 8607 proof_build_time "0.001"
0 0 nat2_ind_sym "0.001"
8565 8602 context_used ""
8603 8607 proof_check_time "0.000"
0 0 VernacProof "tac:no using:no"
8950 8954 proof_build_time "0.002"
0 0 nat2_eq_dec "0.002"
8925 8949 context_used ""
8950 8954 proof_check_time "0.000"
0 0 VernacProof "tac:no using:no"
9348 9352 proof_build_time "0.002"
0 0 nat2_eq_le_dec "0.002"
9323 9347 context_used ""
9348 9352 proof_check_time "0.000"
0 0 VernacProof "tac:no using:no"
9753 9757 proof_build_time "0.002"
0 0 nat2_eq_lt_dec "0.002"
9728 9752 context_used ""
9753 9757 proof_check_time "0.000"
0 0 vo_compile_time "0.122"
