COQAUX1 834eadc31210d214870c1a2aec13a16e /home/delta/coq/liber/binomiaux/Nat_Binomial.v
0 0 VernacProof "tac:no using:no"
1053 1057 proof_build_time "0.001"
0 0 binom_0_r "0.001"
1028 1052 context_used ""
1053 1057 proof_check_time "0.000"
0 0 VernacProof "tac:no using:no"
1167 1171 proof_build_time "0.001"
0 0 binom_0_l "0.001"
1149 1166 context_used ""
1167 1171 proof_check_time "0.000"
0 0 VernacProof "tac:no using:no"
1307 1311 proof_build_time "0.000"
0 0 binom_pascal "0.000"
1294 1306 context_used ""
1307 1311 proof_check_time "0.000"
0 0 VernacProof "tac:no using:no"
1717 1721 proof_build_time "0.003"
0 0 binom_eq_0 "0.003"
1705 1716 context_used ""
1717 1721 proof_check_time "0.001"
0 0 VernacProof "tac:no using:no"
1892 1896 proof_build_time "0.001"
0 0 binom_S_l "0.001"
1864 1891 context_used ""
1892 1896 proof_check_time "0.000"
0 0 VernacProof "tac:no using:no"
2232 2236 proof_build_time "0.004"
0 0 binom_S_r "0.004"
2204 2231 context_used ""
2232 2236 proof_check_time "0.001"
0 0 VernacProof "tac:no using:no"
2392 2396 proof_build_time "0.001"
0 0 binom_diag "0.001"
2366 2391 context_used ""
2392 2396 proof_check_time "0.000"
0 0 VernacProof "tac:no using:no"
2526 2530 proof_build_time "0.001"
0 0 binom_1_r "0.001"
2507 2525 context_used ""
2526 2530 proof_check_time "0.000"
0 0 VernacProof "tac:no using:no"
2596 2600 proof_build_time "0.000"
0 0 binom_ge_0 "0.000"
2578 2595 context_used ""
2596 2600 proof_check_time "0.000"
0 0 VernacProof "tac:no using:no"
2901 2905 proof_build_time "0.003"
0 0 binom_gt_0 "0.003"
2889 2900 context_used ""
2901 2905 proof_check_time "0.001"
0 0 VernacProof "tac:no using:no"
3018 3022 proof_build_time "0.000"
0 0 binom_neq_0 "0.000"
3006 3017 context_used ""
3018 3022 proof_check_time "0.000"
0 0 VernacProof "tac:no using:no"
3155 3159 proof_build_time "0.001"
0 0 binom_eq_0_rev "0.001"
3143 3154 context_used ""
3155 3159 proof_check_time "0.000"
0 0 VernacProof "tac:no using:no"
3269 3273 proof_build_time "0.000"
0 0 binom_eq_0_equiv "0.000"
3251 3268 context_used ""
3269 3273 proof_check_time "0.000"
0 0 VernacProof "tac:no using:no"
3408 3412 proof_build_time "0.001"
0 0 binom_neq_0_rev "0.001"
3396 3407 context_used ""
3408 3412 proof_check_time "0.000"
0 0 VernacProof "tac:no using:no"
3527 3531 proof_build_time "0.000"
0 0 binom_neq_0_equiv "0.000"
3508 3526 context_used ""
3527 3531 proof_check_time "0.000"
0 0 VernacProof "tac:no using:no"
3661 3665 proof_build_time "0.001"
0 0 binom_le_S "0.001"
3641 3660 context_used ""
3661 3665 proof_check_time "0.000"
0 0 VernacProof "tac:no using:no"
3780 3784 proof_build_time "0.001"
0 0 binom_le_pred "0.001"
3762 3779 context_used ""
3780 3784 proof_check_time "0.000"
0 0 VernacProof "tac:no using:no"
4142 4146 proof_build_time "0.002"
0 0 binom_le "0.002"
4110 4141 context_used ""
4142 4146 proof_check_time "0.000"
0 0 VernacProof "tac:no using:no"
4497 4501 proof_build_time "0.002"
0 0 binom_le_alt "0.002"
4485 4496 context_used ""
4497 4501 proof_check_time "0.000"
0 0 VernacProof "tac:no using:no"
4778 4782 proof_build_time "0.002"
0 0 binom_lt_S "0.002"
4761 4777 context_used ""
4778 4782 proof_check_time "0.001"
0 0 VernacProof "tac:no using:no"
4979 4983 proof_build_time "0.002"
0 0 binom_lt_pred "0.002"
4961 4978 context_used ""
4979 4983 proof_check_time "0.000"
0 0 VernacProof "tac:no using:no"
5618 5622 proof_build_time "0.005"
0 0 binom_lt "0.005"
5606 5617 context_used ""
5618 5622 proof_check_time "0.001"
0 0 VernacProof "tac:no using:no"
5808 5812 proof_build_time "0.001"
0 0 binom_gt_1 "0.001"
5796 5807 context_used ""
5808 5812 proof_check_time "0.000"
0 0 VernacProof "tac:no using:no"
6057 6061 proof_build_time "0.007"
0 0 binom_gt_1_contra "0.007"
6036 6056 context_used ""
6057 6061 proof_check_time "0.001"
0 0 VernacProof "tac:no using:no"
6430 6434 proof_build_time "0.005"
0 0 binom_eq_1_equiv "0.005"
6413 6429 context_used ""
6430 6434 proof_check_time "0.001"
0 0 VernacProof "tac:no using:no"
7159 7163 proof_build_time "0.013"
0 0 binom_committee_chair "0.013"
7139 7158 context_used ""
7159 7163 proof_check_time "0.002"
0 0 VernacProof "tac:no using:no"
7790 7794 proof_build_time "0.006"
0 0 binom_committee_chair_iter_w0 "0.006"
7764 7789 context_used ""
7790 7794 proof_check_time "0.001"
0 0 VernacProof "tac:no using:no"
9092 9096 proof_build_time "0.024"
0 0 binom_committee_chair_iter "0.024"
9079 9091 context_used ""
9092 9096 proof_check_time "0.004"
0 0 VernacProof "tac:no using:no"
9577 9581 proof_build_time "0.009"
0 0 binom_fact "0.009"
9565 9576 context_used ""
9577 9581 proof_check_time "0.002"
0 0 VernacProof "tac:no using:no"
10029 10033 proof_build_time "0.002"
0 0 binom_fact_div_w0 "0.002"
9986 10028 context_used ""
10029 10033 proof_check_time "0.000"
0 0 VernacProof "tac:no using:no"
10310 10314 proof_build_time "0.001"
0 0 binom_fact_div_wn0 "0.001"
10288 10309 context_used ""
10310 10314 proof_check_time "0.000"
0 0 VernacProof "tac:no using:no"
10755 10759 proof_build_time "0.002"
0 0 binom_fact_div "0.002"
10743 10754 context_used ""
10755 10759 proof_check_time "0.000"
0 0 VernacProof "tac:no using:no"
11189 11193 proof_build_time "0.006"
0 0 binom_sym "0.006"
11177 11188 context_used ""
11189 11193 proof_check_time "0.011"
0 0 VernacProof "tac:no using:no"
11331 11335 proof_build_time "0.001"
0 0 binom_sym_alt "0.001"
11311 11330 context_used ""
11331 11335 proof_check_time "0.000"
0 0 VernacProof "tac:no using:no"
11497 11501 proof_build_time "0.001"
0 0 binom_Sn "0.001"
11480 11496 context_used ""
11497 11501 proof_check_time "0.000"
0 0 VernacProof "tac:no using:no"
12514 12518 proof_build_time "0.010"
0 0 binom_cancellation "0.010"
12502 12513 context_used ""
12514 12518 proof_check_time "0.002"
0 0 VernacProof "tac:no using:no"
13027 13031 proof_build_time "0.002"
0 0 binom_cancellation_alt "0.002"
13014 13026 context_used ""
13027 13031 proof_check_time "0.000"
0 0 VernacProof "tac:no using:no"
13423 13427 proof_build_time "0.002"
0 0 binom_rising_sum_l "0.002"
13403 13422 context_used ""
13423 13427 proof_check_time "0.000"
0 0 VernacProof "tac:no using:no"
13635 13639 proof_build_time "0.001"
0 0 binom_rising_sum_r "0.001"
13614 13634 context_used ""
13635 13639 proof_check_time "0.000"
0 0 VernacProof "tac:no using:no"
14880 14884 proof_build_time "0.005"
0 0 binom_hockey_stick "0.005"
14854 14879 context_used ""
14880 14884 proof_check_time "0.001"
0 0 VernacProof "tac:no using:no"
17201 17205 proof_build_time "0.033"
0 0 binom_formula "0.033"
17188 17200 context_used ""
17201 17205 proof_check_time "0.005"
0 0 VernacProof "tac:no using:no"
17532 17536 proof_build_time "0.002"
0 0 binom_formula_1_l "0.002"
17520 17531 context_used ""
17532 17536 proof_check_time "0.001"
0 0 VernacProof "tac:no using:no"
17883 17887 proof_build_time "0.001"
0 0 binom_sum "0.001"
17870 17882 context_used ""
17883 17887 proof_check_time "0.000"
0 0 VernacProof "tac:no using:no"
19171 19175 proof_build_time "0.015"
0 0 binom_vandermonde "0.015"
19158 19170 context_used ""
19171 19175 proof_check_time "0.002"
0 0 VernacProof "tac:no using:no"
19605 19609 proof_build_time "0.001"
0 0 binom_sum_sqr "0.001"
19592 19604 context_used ""
19605 19609 proof_check_time "0.000"
0 0 VernacProof "tac:no using:no"
19955 19959 proof_build_time "0.005"
0 0 fact_add_mod_0 "0.005"
19935 19954 context_used ""
19955 19959 proof_check_time "0.000"
0 0 VernacProof "tac:no using:no"
20181 20185 proof_build_time "0.006"
0 0 fact_sub_mod_0 "0.006"
20169 20180 context_used ""
20181 20185 proof_check_time "0.000"
0 0 vo_compile_time "0.300"
