COQAUX1 a65e90e2f2f77db390fc0719e3a4dee2 /home/delta/coq/liber/binomiaux/Nat_Factorial.v
0 0 VernacProof "tac:no using:no"
1042 1046 proof_build_time "0.000"
0 0 fact_0 "0.000"
1029 1041 context_used ""
1042 1046 proof_check_time "0.000"
0 0 VernacProof "tac:no using:no"
1095 1099 proof_build_time "0.000"
0 0 fact_1 "0.000"
1082 1094 context_used ""
1095 1099 proof_check_time "0.000"
0 0 VernacProof "tac:no using:no"
1165 1169 proof_build_time "0.000"
0 0 fact_S "0.000"
1152 1164 context_used ""
1165 1169 proof_check_time "0.000"
0 0 VernacProof "tac:no using:no"
1281 1285 proof_build_time "0.001"
0 0 fact_pred "0.001"
1267 1280 context_used ""
1281 1285 proof_check_time "0.000"
0 0 VernacProof "tac:no using:no"
1428 1432 proof_build_time "0.001"
0 0 fact_gt_0 "0.001"
1407 1427 context_used ""
1428 1432 proof_check_time "0.000"
0 0 VernacProof "tac:no using:no"
1508 1512 proof_build_time "0.000"
0 0 fact_neq_0 "0.000"
1475 1507 context_used ""
1508 1512 proof_check_time "0.000"
0 0 VernacProof "tac:no using:no"
1616 1620 proof_build_time "0.001"
0 0 fact_mul_neq_0 "0.001"
1570 1615 context_used ""
1616 1620 proof_check_time "0.000"
0 0 VernacProof "tac:no using:no"
1758 1762 proof_build_time "0.001"
0 0 fact_mul2_neq_0 "0.001"
1740 1757 context_used ""
1758 1762 proof_check_time "0.000"
0 0 VernacProof "tac:no using:no"
1870 1874 proof_build_time "0.001"
0 0 fact_S_div "0.001"
1835 1869 context_used ""
1870 1874 proof_check_time "0.000"
0 0 VernacProof "tac:no using:no"
2038 2042 proof_build_time "0.001"
0 0 fact_S_div_alt "0.001"
2004 2037 context_used ""
2038 2042 proof_check_time "0.000"
0 0 VernacProof "tac:no using:no"
2191 2195 proof_build_time "0.003"
0 0 fact_gt_1 "0.003"
2174 2190 context_used ""
2191 2195 proof_check_time "0.000"
0 0 VernacProof "tac:no using:no"
2513 2517 proof_build_time "0.003"
0 0 fact_eq_1_equiv "0.003"
2501 2512 context_used ""
2513 2517 proof_check_time "0.001"
0 0 VernacProof "tac:no using:no"
2746 2750 proof_build_time "0.004"
0 0 fact_eq_1_wn1 "0.004"
2728 2745 context_used ""
2746 2750 proof_check_time "0.001"
0 0 VernacProof "tac:no using:no"
2947 2951 proof_build_time "0.001"
0 0 fact_le "0.001"
2925 2946 context_used ""
2947 2951 proof_check_time "0.000"
0 0 VernacProof "tac:no using:no"
3247 3251 proof_build_time "0.002"
0 0 fact_lt_w0 "0.002"
3235 3246 context_used ""
3247 3251 proof_check_time "0.000"
0 0 VernacProof "tac:no using:no"
3411 3415 proof_build_time "0.001"
0 0 fact_lt_S "0.001"
3399 3410 context_used ""
3411 3415 proof_check_time "0.000"
0 0 VernacProof "tac:no using:no"
3829 3833 proof_build_time "0.002"
0 0 fact_lt_wn0 "0.002"
3803 3828 context_used ""
3829 3833 proof_check_time "0.000"
0 0 VernacProof "tac:no using:no"
4024 4028 proof_build_time "0.001"
0 0 fact_lt "0.001"
4012 4023 context_used ""
4024 4028 proof_check_time "0.000"
0 0 VernacProof "tac:no using:no"
4326 4330 proof_build_time "0.005"
0 0 fact_inj_w0 "0.005"
4305 4325 context_used ""
4326 4330 proof_check_time "0.001"
0 0 VernacProof "tac:no using:no"
4770 4774 proof_build_time "0.002"
0 0 fact_inj_wn0 "0.002"
4753 4769 context_used ""
4770 4774 proof_check_time "0.000"
0 0 VernacProof "tac:no using:no"
5021 5025 proof_build_time "0.002"
0 0 fact_inj "0.002"
4989 5020 context_used ""
5021 5025 proof_check_time "0.001"
0 0 VernacProof "tac:no using:no"
5520 5524 proof_build_time "0.005"
0 0 fact_mod_0 "0.005"
5507 5519 context_used ""
5520 5524 proof_check_time "0.001"
0 0 VernacProof "tac:no using:no"
5895 5899 proof_build_time "0.003"
0 0 fact_divide "0.003"
5883 5894 context_used ""
5895 5899 proof_check_time "0.000"
0 0 vo_compile_time "0.103"
