COQAUX1 2f0741abeb32bd2b46895bf48bd7c4d3 /home/delta/coq/liber/binomiaux/Nat_Sum.v
0 0 VernacProof "tac:no using:no"
1570 1574 proof_build_time "0.002"
0 0 sum_range_correct_l "0.002"
1540 1569 context_used ""
1570 1574 proof_check_time "0.000"
0 0 VernacProof "tac:no using:no"
1761 1765 proof_build_time "0.002"
0 0 sum_range_correct_r "0.002"
1731 1760 context_used ""
1761 1765 proof_check_time "0.000"
0 0 VernacProof "tac:no using:no"
2534 2538 proof_build_time "0.007"
0 0 sum_n_eq "0.007"
2521 2533 context_used ""
2534 2538 proof_check_time "0.001"
0 0 VernacProof "tac:no using:no"
2705 2709 proof_build_time "0.001"
0 0 sum_range_0_l "0.001"
2692 2704 context_used ""
2705 2709 proof_check_time "0.000"
0 0 VernacProof "tac:no using:no"
3022 3026 proof_build_time "0.002"
0 0 sum_n_ext "0.002"
3010 3021 context_used ""
3022 3026 proof_check_time "0.000"
0 0 VernacProof "tac:no using:no"
3522 3526 proof_build_time "0.007"
0 0 sum_range_ext "0.007"
3505 3521 context_used ""
3522 3526 proof_check_time "0.001"
0 0 VernacProof "tac:no using:no"
3585 3589 proof_build_time "0.000"
0 0 sum_n_0 "0.000"
3572 3584 context_used ""
3585 3589 proof_check_time "0.000"
0 0 VernacProof "tac:no using:no"
3677 3681 proof_build_time "0.001"
0 0 sum_n_1 "0.001"
3651 3676 context_used ""
3677 3681 proof_check_time "0.000"
0 0 VernacProof "tac:no using:no"
3875 3879 proof_build_time "0.000"
0 0 sum_n_ind_r "0.000"
3862 3874 context_used ""
3875 3879 proof_check_time "0.000"
0 0 VernacProof "tac:no using:no"
4205 4209 proof_build_time "0.004"
0 0 sum_n_ind_l "0.004"
4192 4204 context_used ""
4205 4209 proof_check_time "0.001"
0 0 VernacProof "tac:no using:no"
4579 4583 proof_build_time "0.002"
0 0 sum_n_ind "0.002"
4554 4578 context_used ""
4579 4583 proof_check_time "0.000"
0 0 VernacProof "tac:no using:no"
4929 4933 proof_build_time "0.005"
0 0 sum_n_concat "0.005"
4900 4928 context_used ""
4929 4933 proof_check_time "0.001"
0 0 VernacProof "tac:no using:no"
5135 5139 proof_build_time "0.001"
0 0 sum_n_split "0.001"
5123 5134 context_used ""
5135 5139 proof_check_time "0.000"
0 0 VernacProof "tac:no using:no"
5513 5517 proof_build_time "0.004"
0 0 sum_n_extract "0.004"
5501 5512 context_used ""
5513 5517 proof_check_time "0.001"
0 0 VernacProof "tac:no using:no"
5849 5853 proof_build_time "0.003"
0 0 sum_n_le "0.003"
5837 5848 context_used ""
5849 5853 proof_check_time "0.000"
0 0 VernacProof "tac:no using:no"
7124 7128 proof_build_time "0.012"
0 0 sum_n_lt "0.012"
7112 7123 context_used ""
7124 7128 proof_check_time "0.003"
0 0 VernacProof "tac:no using:no"
7413 7417 proof_build_time "0.002"
0 0 sum_n_eq_0 "0.002"
7400 7412 context_used ""
7413 7417 proof_check_time "0.000"
0 0 VernacProof "tac:no using:no"
7976 7980 proof_build_time "0.004"
0 0 sum_range_eq_0 "0.004"
7950 7975 context_used ""
7976 7980 proof_check_time "0.001"
0 0 VernacProof "tac:no using:no"
8483 8487 proof_build_time "0.007"
0 0 sum_n_eq_0_rev "0.007"
8471 8482 context_used ""
8483 8487 proof_check_time "0.001"
0 0 VernacProof "tac:no using:no"
8633 8637 proof_build_time "0.001"
0 0 sum_n_eq_0_equiv "0.001"
8615 8632 context_used ""
8633 8637 proof_check_time "0.000"
0 0 VernacProof "tac:no using:no"
8814 8818 proof_build_time "0.001"
0 0 sum_n_neq_0 "0.001"
8797 8813 context_used ""
8814 8818 proof_check_time "0.000"
0 0 VernacProof "tac:no using:no"
9090 9094 proof_build_time "0.005"
0 0 sum_n_add "0.005"
9069 9089 context_used ""
9090 9094 proof_check_time "0.001"
0 0 VernacProof "tac:no using:no"
9589 9593 proof_build_time "0.005"
0 0 sum_n_sub "0.005"
9576 9588 context_used ""
9589 9593 proof_check_time "0.001"
0 0 VernacProof "tac:no using:no"
9787 9791 proof_build_time "0.002"
0 0 sum_n_mul_add_distr_l "0.002"
9760 9786 context_used ""
9787 9791 proof_check_time "0.000"
0 0 VernacProof "tac:no using:no"
9986 9990 proof_build_time "0.001"
0 0 sum_n_mul_add_distr_r "0.001"
9958 9985 context_used ""
9986 9990 proof_check_time "0.000"
0 0 VernacProof "tac:no using:no"
10330 10334 proof_build_time "0.003"
0 0 sum_n_shift_l "0.003"
10310 10329 context_used ""
10330 10334 proof_check_time "0.001"
0 0 VernacProof "tac:no using:no"
10569 10573 proof_build_time "0.002"
0 0 sum_n_shift_r "0.002"
10556 10568 context_used ""
10569 10573 proof_check_time "0.000"
0 0 VernacProof "tac:no using:no"
10996 11000 proof_build_time "0.006"
0 0 sum_n_reverse "0.006"
10983 10995 context_used ""
10996 11000 proof_check_time "0.001"
0 0 vo_compile_time "0.172"
